"La Decima" to 10. triumf w rozgrywakch Ligi Mistrzow, ktory w 2014 roku powedrowal do?;Real Madryt;Mancherster City;Atletico Madryt;AC Milan;A
W ktorym roku odbyl sie historyczny lot orbitalny Jurija Gagarina?;1961;1967;1974;1982;A
Kim byl Jan Heweliusz?;Podroznikiem i geografem;Astronomem;Filozofem i logikiem;Sportowcem;B
Jak nazywala sie seria polskich komputerow produkowanych od lat 60?;Piast;Polonia;Odra;Wisla;C
Jak nazywa sie aktorka, ktora zagrala glowna role w filmie Davida Leitcha "Atomic blonde"?;Kristen Stewart;Emily Blun;Charlize Theron;Cary Elwes;C
Kto zostal krolem Anglii po bitwie pod Hastings?;Henryk Zdobywca;Wilhelm Zdobywca;Karol Zdobywca;Janusz Zdobywca;B
Religia dominujaca w Japonii jest buddyzm oraz?;chrzescijanstwo;szinto;islam;bahaizm;B
Jak nazywal sie najwiekszy statek Krzysztofa Kolumba, na ktorym dotarl do Ameryki?;Santa Maria;Pinta;Nina;Lila;A
Kto napisal slynna opere Carmen?;Giuseppe Verdi;Georges Bizet;Giacomo Puccini;Giacchino Rossini;B
Niemal caly obszar ladowy Japonii zajmuja cztery wyspy Hokkaido, Honsiu, Sikoku oraz Kiusiu. Ktora jest najwieksza?;Hokkaido;Honsiu;Kiusiu;Sikoku;B
