﻿Dokoncz: Nosil wilk razy kilka...;teraz odpoczynku chwilka;bo prosila go Emilka;poniesli i wilka;az mu się ucho urwalo;C
Czym zabita jest pipidowka?;gwozdziami;nozem;widlami;dechami;D
Trunek dobry na frasunek najpredzej znajdziemy?;w bidonie;w menazce;w probowce;w piersiowce;D
Ktore narzedzie to grzebien osadzony na stylisku?;siekiera;graca;grabie;lopata;C
Ktory to pierwszy biblijny denat?;Kain;Abel;Adam;Noe;B
Nastawny w narzedziowej skrzynce?;klucz;lom;mlotek;przecinak;A
Obiektem astronomicznym jest?;bialy lej;czerwona czelusc;niebieska wyrwa;czarna dziura;D
Ktore z panstw ma tylko jedna stala rzeke?;Egipt;Austria;Portugalia;Turcja;A
Niejadowity waz?;boa;kobra;mamba;grzechotnik;A
Co powstaje na krosnie?;papier czerpany;wedlina;tkanina;utwor na gitare;C